Chapter 5. Increasing Returns and the Gravity Equation – Advanced International Trade in R
…
My code

trade_93 <- readRDS(paste0(dout, "/trade_93.rds"))

trade_93 %>%
  group_by(c_e) %>%
  summarise(freq = n()) %>%
  ungroup() %>%
  mutate(
    percent = freq / sum(freq) * 100,
    cum = cumsum(percent)
  )

# A tibble: 40 × 4
   c_e    freq percent   cum
   <chr> <int>   <dbl> <dbl>
 1 AB       39    2.58  2.58
 2 Ala      38    2.51  5.10
 3 Ari      37    2.45  7.54
 4 BC       39    2.58 10.1 
 5 Cal      37    2.45 12.6 
 6 Flo      39    2.58 15.2 
 7 Geo      39    2.58 17.7 
 8 Ida      36    2.38 20.1 
 9 Ill      39    2.58 22.7 
10 Ind      38    2.51 25.2 
# ℹ 30 more rows

trade_93 %>%
  group_by(c_i) %>%
  summarise(freq = n()) %>%
  ungroup() %>%
  mutate(
    percent = freq / sum(freq) * 100,
    cum = cumsum(percent)
  )

# A tibble: 40 × 4
   c_i    freq percent   cum
   <chr> <int>   <dbl> <dbl>
 1 AB       39    2.58  2.58
 2 Ala      38    2.51  5.10
 3 Ari      36    2.38  7.48
 4 BC       39    2.58 10.1 
 5 Cal      39    2.58 12.6 
 6 Flo      39    2.58 15.2 
 7 Geo      39    2.58 17.8 
 8 Ida      33    2.18 20.0 
 9 Ill      39    2.58 22.6 
10 Ind      39    2.58 25.1 
# ℹ 30 more rows
…
