Chapter 2. The Heckscher-Ohlin Model – Advanced International Trade in R
…
            trat    athat2
trat   1.0000000 0.2822883
athat2 0.2822883 1.0000000

# Sign Test ----

trefler %>%
  group_by(country, indexc) %>%
  summarize(
    p = sum(trat * athat2 > 0) / n()
  )

# A tibble: 33 × 3
# Groups:   country [33]
   country    indexc     p
   <chr>       <int> <dbl>
 1 Austria        17 0.556
 2 Bangladesh      1 0.333
 3 Belgium        22 0.667
 4 Canada         32 0.556
 5 Colombia        6 0.333
 6 Denmark        26 0.444
 7 Finland        25 0.333
 8 France         28 0.333
 9 Greece         11 0.111
10 Hong Kong      15 0.667
# ℹ 23 more rows
…
trefler_rank

# A tibble: 33 × 4
# Groups:   country [33]
   country    indexc    r1     r2
   <chr>       <int> <int>  <dbl>
 1 Austria        17    19 0.528 
 2 Bangladesh      1    27 0.75  
 3 Belgium        22    22 0.611 
 4 Canada         32    32 0.889 
 5 Colombia        6    29 0.806 
 6 Denmark        26    19 0.528 
 7 Finland        25    17 0.472 
 8 France         28     3 0.0833
 9 Greece         11    17 0.472 
10 Hong Kong      15    30 0.833 
# ℹ 23 more rows
…
            trat    athat2
trat   1.0000000 0.4099617
athat2 0.4099617 1.0000000

# Sign Test ----

trefler %>%
  group_by(country, indexc) %>%
  summarize(
    p = sum(trat * athat2 > 0) / n()
  )

# A tibble: 33 × 3
# Groups:   country [33]
   country    indexc     p
   <chr>       <int> <dbl>
 1 Austria        17 0.667
 2 Bangladesh      1 0.778
 3 Belgium        22 0.778
 4 Canada         32 0.222
 5 Colombia        6 0.889
 6 Denmark        26 0.444
 7 Finland        25 0.444
 8 France         28 0.333
 9 Greece         11 0.556
10 Hong Kong      15 0.889
# ℹ 23 more rows
…
trefler_rank

# A tibble: 33 × 4
# Groups:   country [33]
   country    indexc    r1    r2
   <chr>       <int> <int> <dbl>
 1 Austria        17    16 0.444
 2 Bangladesh      1    28 0.778
 3 Belgium        22    19 0.528
 4 Canada         32    20 0.556
 5 Colombia        6    31 0.861
 6 Denmark        26    15 0.417
 7 Finland        25    18 0.5  
 8 France         28     7 0.194
 9 Greece         11    27 0.75 
10 Hong Kong      15    26 0.722
# ℹ 23 more rows
…
