Chapter 9. Political Economy of Trade Policy – Advanced International Trade in R
…
  saveRDS(china_fdi, fout)
} else {
  china_fdi <- readRDS(fout)
}

pd_vars <- paste("pd", 1:30, sep = "", collapse = " + ")
yd_vars <- paste("yd", 1:18, sep = "", collapse = " + ")

formula_str <- paste("fiech3 ~ state3 + premsta3 + tar_cm3 + newprem + fdi2_cm3 + appcons3 +", pd_vars, "+", yd_vars)

fit1 <- lm(as.formula(formula_str), data = filter(china_fdi, fiech3 > 0))

tidy(fit1)

# A tibble: 55 × 5
   term        estimate     std.error statistic  p.value
   <chr>          <dbl>         <dbl>     <dbl>    <dbl>
 1 (Intercept)  1.65e+2 41.6              3.96  9.89e- 5
 2 state3      -4.12e-1  0.0794          -5.19  4.33e- 7
 3 premsta3     4.18e-1  0.138            3.04  2.65e- 3
 4 tar_cm3     -1.46e-1  1.18            -0.124 9.02e- 1
 5 newprem     -1.18e+2 65.2             -1.82  7.02e- 2
 6 fdi2_cm3     3.67e-7  0.0000000750     4.89  1.80e- 6
 7 appcons3     1.09e-1  0.00842         12.9   1.60e-29
 8 pd1          9.65e+1 32.7              2.95  3.47e- 3
 9 pd2          6.96e+1 32.7              2.13  3.41e- 2
10 pd3          5.69e+0 31.9              0.178 8.58e- 1
# ℹ 45 more rows
…
